Analysis – MA [46]15 Final Project Group BHZZ
…
We are especially interested in examining the relationships between:

-   race and type of violent crime
-   sex and type of violent crime
-   age and type of violent crime
-   time period and type of violent crime

A preview of the dataset:

tibble(Violence)

# A tibble: 45,842 × 12
   TIME_PERIOD TIME_PERIOD_START TIME_PERIOD_END PRIMARY_TYPE  AGE   SEX   RACE 
   <chr>       <chr>             <chr>           <chr>         <chr> <chr> <chr>
 1 2022 Q2     03/01/2022        06/30/2022      BATTERY       70-79 M     API  
 2 2015 Q4     10/01/2015        12/31/2015      ROBBERY       30-39 F     API  
 3 2017 Q4     10/01/2017        12/31/2017      ASSAULT       0-19  M     WWH  
 4 2023 Q3     07/01/2023        09/30/2023      ASSAULT       0-19  M     WBH  
 5 2018 Q3     07/01/2018        09/30/2018      ROBBERY       30-39 F     WHI  
 6 2024 Q1     01/01/2024        03/31/2024      ROBBERY       30-39 M     API  
 7 2010 Q1     01/01/2010        03/31/2010      CRIMINAL SEX… 20-29 F     API  
 8 2010 Q1     01/01/2010        03/31/2010      ROBBERY       70-79 M     WHI  
 9 2017 Q3     07/01/2017        09/30/2017      ROBBERY       20-29 M     WWH  
10 2023 Q3     07/01/2023        09/30/2023      CRIMINAL SEX… 40-49 M     WWH  
# ℹ 45,832 more rows
# ℹ 5 more variables: JUVENILE_I <lgl>, DOMESTIC_I <lgl>,
#   GUNSHOT_INJURY_I <chr>, NUMBER_OF_VICTIMS <dbl>, Year <dbl>
…
