4thBlogPost – MA [46]15 Final Project Group BHZZ
…
Warning in regularize.values(x, y, ties, missing(ties), na.rm = na.rm):
collapsing to unique 'x' values

# A tibble: 24 × 7
   term        estimate std.error statistic   p.value conf.low conf.high
   <chr>          <dbl>     <dbl>     <dbl>     <dbl>    <dbl>     <dbl>
 1 (Intercept) 0.224       0.0607 -24.6     6.72e-134   0.199      0.252
 2 SEXM        0.0843      0.167  -14.8     1.60e- 49   0.0599     0.116
 3 SEXUNKNOWN  0.186       1.02    -1.65    9.98e-  2   0.0104     0.884
 4 RACEBLK     0.868       0.0678  -2.09    3.67e-  2   0.761      0.992
 5 RACEI       0.752       0.174   -1.64    1.01e-  1   0.529      1.05 
 6 RACES       0.000502   98.5     -0.0771  9.39e-  1  NA         40.0  
 7 RACEUNKNOWN 1.06        0.0811   0.697   4.86e-  1   0.903      1.24 
 8 RACEWBH     1.00        0.0965   0.00495 9.96e-  1   0.827      1.21 
 9 RACEWHI     1.18        0.0699   2.39    1.69e-  2   1.03       1.36 
10 RACEWWH     1.07        0.0699   1.03    3.01e-  1   0.938      1.23 
# ℹ 14 more rows
…
